[gd_scene load_steps=8 format=2]

[ext_resource path="res://Scripts/settings_menu/SettingsButtton.gd" type="Script" id=1]
[ext_resource path="res://Assets/settings_menu/settings_icon.png" type="Texture" id=2]
[ext_resource path="res://Assets/settings_menu/settings.png" type="Texture" id=3]

[sub_resource type="StyleBoxFlat" id=5]
bg_color = Color( 0.501961, 0.109804, 0.109804, 1 )
border_width_right = 12
border_width_bottom = 12
border_color = Color( 0, 0, 0, 1 )
corner_radius_top_left = 40

[sub_resource type="StyleBoxFlat" id=6]
bg_color = Color( 0.407843, 0.133333, 0.133333, 1 )

[sub_resource type="Theme" id=7]
/styles/Content = SubResource( 5 )
PanelContainer/styles/Container = SubResource( 6 )

[sub_resource type="StyleBoxFlat" id=8]
bg_color = Color( 0.937255, 1, 0, 1 )
border_width_left = 2
border_width_top = 2
border_width_right = 2
border_width_bottom = 2
border_color = Color( 0.258824, 0.341176, 0.117647, 1 )
corner_radius_top_left = 10
corner_radius_top_right = 10
corner_radius_bottom_right = 10
corner_radius_bottom_left = 10
shadow_color = Color( 0.937255, 1, 0, 1 )
shadow_size = 1

[node name="PauseButtton" type="CanvasLayer"]
layer = 8
script = ExtResource( 1 )

[node name="ColorRect2" type="Panel" parent="."]
anchor_left = 0.5
anchor_top = 0.5
anchor_right = 0.5
anchor_bottom = 0.5
margin_left = 48.0
margin_top = -279.0
margin_right = 101.0
margin_bottom = -226.0
rect_pivot_offset = Vector2( 219.5, 59 )
theme = SubResource( 7 )
custom_styles/panel = SubResource( 8 )

[node name="TouchScreenButton" type="TouchScreenButton" parent="ColorRect2"]
position = Vector2( 4, 4 )
scale = Vector2( 0.0878906, 0.0878906 )
normal = ExtResource( 3 )
pressed = ExtResource( 2 )

[connection signal="pressed" from="ColorRect2/TouchScreenButton" to="." method="_on_TouchScreenButton_pressed"]
